%YAML 1.1
%TAG !u! tag:unity3d.com,2011:
--- !u!114 &11400000
MonoBehaviour:
  m_ObjectHideFlags: 0
  m_CorrespondingSourceObject: {fileID: 0}
  m_PrefabInstance: {fileID: 0}
  m_PrefabAsset: {fileID: 0}
  m_GameObject: {fileID: 0}
  m_Enabled: 1
  m_EditorHideFlags: 0
  m_Script: {fileID: 11500000, guid: 84f402be31506bf448d3bdf87573a0c6, type: 3}
  m_Name: game1 6
  m_EditorClassIdentifier: 
  Clip: {fileID: 0}
  Volume: 1
  ID: 7c85fd35-bf81-4691-b22b-017b744738f2
