%YAML 1.1
%TAG !u! tag:unity3d.com,2011:
--- !u!21 &2100000
Material:
  serializedVersion: 6
  m_ObjectHideFlags: 0
  m_PrefabParentObject: {fileID: 0}
  m_PrefabInternal: {fileID: 0}
  m_Name: Pal cyc B - Specular (GGS logo vintage)
  m_Shader: {fileID: 4800000, guid: 7908be474038c684d9e6b53fcd475a2f, type: 3}
  m_ShaderKeywords: 
  m_LightmapFlags: 5
  m_CustomRenderQueue: 2000
  stringTagMap: {}
  m_SavedProperties:
    serializedVersion: 2
    m_TexEnvs:
    - first:
        name: _BaseRGB
      second:
        m_Texture: {fileID: 2800000, guid: 5ba89e8f4ddba8a429cca4df64a29356, type: 3}
        m_Scale: {x: 1, y: 1}
        m_Offset: {x: 0, y: 0}
    - first:
        name: _BumpMap
      second:
        m_Texture: {fileID: 0}
        m_Scale: {x: 1, y: 1}
        m_Offset: {x: 0, y: 0}
    - first:
        name: _Cubemap
      second:
        m_Texture: {fileID: 8900000, guid: 7556ebff9a4190f4f82568f2299cce4c, type: 3}
        m_Scale: {x: 1, y: 1}
        m_Offset: {x: 0, y: 0}
    - first:
        name: _Cyclingpattern
      second:
        m_Texture: {fileID: 2800000, guid: b40d345d175bcde4098c5bed2d19893e, type: 3}
        m_Scale: {x: 1, y: 1}
        m_Offset: {x: 0, y: 0}
    - first:
        name: _DetailAlbedoMap
      second:
        m_Texture: {fileID: 0}
        m_Scale: {x: 1, y: 1}
        m_Offset: {x: 0, y: 0}
    - first:
        name: _DetailMask
      second:
        m_Texture: {fileID: 0}
        m_Scale: {x: 1, y: 1}
        m_Offset: {x: 0, y: 0}
    - first:
        name: _DetailNormalMap
      second:
        m_Texture: {fileID: 0}
        m_Scale: {x: 1, y: 1}
        m_Offset: {x: 0, y: 0}
    - first:
        name: _EmissionMap
      second:
        m_Texture: {fileID: 0}
        m_Scale: {x: 1, y: 1}
        m_Offset: {x: 0, y: 0}
    - first:
        name: _MainTex
      second:
        m_Texture: {fileID: 2800000, guid: dcd5bb72dd10f414cba3355543c2a1bd, type: 3}
        m_Scale: {x: 1, y: 1}
        m_Offset: {x: 0, y: 0}
    - first:
        name: _Mask
      second:
        m_Texture: {fileID: 2800000, guid: bdf74f2294175be4683a8f364925d02b, type: 3}
        m_Scale: {x: 1, y: 1}
        m_Offset: {x: 0, y: 0}
    - first:
        name: _MetallicGlossMap
      second:
        m_Texture: {fileID: 0}
        m_Scale: {x: 1, y: 1}
        m_Offset: {x: 0, y: 0}
    - first:
        name: _Normalmap
      second:
        m_Texture: {fileID: 0}
        m_Scale: {x: 1, y: 1}
        m_Offset: {x: 0, y: 0}
    - first:
        name: _OcclusionMap
      second:
        m_Texture: {fileID: 0}
        m_Scale: {x: 1, y: 1}
        m_Offset: {x: 0, y: 0}
    - first:
        name: _Palette
      second:
        m_Texture: {fileID: 2800000, guid: 38ef5abe2dfd8034a8ad380f4b10cde4, type: 3}
        m_Scale: {x: 1, y: 1}
        m_Offset: {x: 0, y: 0}
    - first:
        name: _ParallaxMap
      second:
        m_Texture: {fileID: 0}
        m_Scale: {x: 1, y: 1}
        m_Offset: {x: 0, y: 0}
    - first:
        name: _Reflectioncubemap
      second:
        m_Texture: {fileID: 8900000, guid: 34ad3ef734f884a46972f448cbed41bb, type: 2}
        m_Scale: {x: 1, y: 1}
        m_Offset: {x: 0, y: 0}
    - first:
        name: _node_3259
      second:
        m_Texture: {fileID: 2800000, guid: 8d17bae6bb4b4d145b74f21792b2851e, type: 3}
        m_Scale: {x: 1, y: 1}
        m_Offset: {x: 0, y: 0}
    - first:
        name: _node_6038
      second:
        m_Texture: {fileID: 2800000, guid: 39da09fa05e2dce4eb6ac0acc9238596, type: 3}
        m_Scale: {x: 1, y: 1}
        m_Offset: {x: 0, y: 0}
    - first:
        name: _node_6218
      second:
        m_Texture: {fileID: 2800000, guid: 8d17bae6bb4b4d145b74f21792b2851e, type: 3}
        m_Scale: {x: 1, y: 1}
        m_Offset: {x: 0, y: 0}
    - first:
        name: _node_7189
      second:
        m_Texture: {fileID: 2800000, guid: c15d471456625634ea1beb2ab7cb7710, type: 3}
        m_Scale: {x: 1, y: 1}
        m_Offset: {x: 0, y: 0}
    - first:
        name: _node_9377
      second:
        m_Texture: {fileID: 0}
        m_Scale: {x: 1, y: 1}
        m_Offset: {x: 0, y: 0}
    - first:
        name: _node_9555
      second:
        m_Texture: {fileID: 2800000, guid: 32362ea55469fce45816c907a9683dc9, type: 3}
        m_Scale: {x: 1, y: 1}
        m_Offset: {x: 0, y: 0}
    - first:
        name: vvxxww
      second:
        m_Texture: {fileID: 2800000, guid: 38ef5abe2dfd8034a8ad380f4b10cde4, type: 3}
        m_Scale: {x: 1, y: 1}
        m_Offset: {x: 0, y: 0}
    - first:
        name: vwwxwx
      second:
        m_Texture: {fileID: 8900000, guid: 231521de99c71894d8af63955e84c014, type: 3}
        m_Scale: {x: 1, y: 1}
        m_Offset: {x: 0, y: 0}
    - first:
        name: wvvxxv
      second:
        m_Texture: {fileID: 2800000, guid: 39698dc72d811ad4caaf2c8a1a2cb9f3, type: 3}
        m_Scale: {x: 1, y: 1}
        m_Offset: {x: 0, y: 0}
    - first:
        name: xvwvwx
      second:
        m_Texture: {fileID: 2800000, guid: 0e4ff4eae087501428978e4034866376, type: 3}
        m_Scale: {x: 1, y: 1}
        m_Offset: {x: 0, y: 0}
    - first:
        name: xvxwww
      second:
        m_Texture: {fileID: 2800000, guid: b40d345d175bcde4098c5bed2d19893e, type: 3}
        m_Scale: {x: 1, y: 1}
        m_Offset: {x: 0, y: 0}
    m_Floats:
    - first:
        name: _BumpScale
      second: 1
    - first:
        name: _Cubemappower
      second: 0
    - first:
        name: _Cutoff
      second: 0.5
    - first:
        name: _Cyclingspeed
      second: 0.2
    - first:
        name: _Desaturate
      second: 0
    - first:
        name: _DetailNormalMapScale
      second: 1
    - first:
        name: _DstBlend
      second: 0
    - first:
        name: _EmissionScaleUI
      second: 0
    - first:
        name: _Glossiness
      second: 0.5
    - first:
        name: _Metallic
      second: 0
    - first:
        name: _Mode
      second: 0
    - first:
        name: _OcclusionStrength
      second: 1
    - first:
        name: _Palettecyclingspeed11
      second: 0.1
    - first:
        name: _Palettecyclingspeed33
      second: -0.1
    - first:
        name: _Palettepower12
      second: 1
    - first:
        name: _Palettestratification
      second: 1
    - first:
        name: _Parallax
      second: 0.02
    - first:
        name: _Power
      second: 1
    - first:
        name: _Power12
      second: 0.86
    - first:
        name: _Reflectioncubemappower
      second: 0
    - first:
        name: _Shininess
      second: 0
    - first:
        name: _Specular
      second: 0
    - first:
        name: _Speed
      second: 0.2
    - first:
        name: _SrcBlend
      second: 1
    - first:
        name: _Step
      second: 16
    - first:
        name: _Stratification
      second: 1.44
    - first:
        name: _UVSec
      second: 0
    - first:
        name: _ZWrite
      second: 1
    - first:
        name: _node_1610
      second: 0.33
    - first:
        name: _node_4025
      second: 0
    - first:
        name: _node_4414
      second: 3
    - first:
        name: _node_6079
      second: 0.3
    - first:
        name: _node_6855
      second: 1
    - first:
        name: _node_912
      second: 2
    - first:
        name: _node_9256
      second: 1
    - first:
        name: _node_9402
      second: 0
    - first:
        name: vwvxwv
      second: 1
    - first:
        name: vwxvww
      second: 1
    - first:
        name: vxwwww
      second: 0.35
    - first:
        name: wvwwxv
      second: -0.1
    - first:
        name: wwvxvx
      second: 1
    - first:
        name: xwvwvw
      second: 0.871
    m_Colors:
    - first:
        name: _Color
      second: {r: 0.7058823, g: 0.7058823, b: 0.7058823, a: 1}
    - first:
        name: _EmissionColor
      second: {r: 0, g: 0, b: 0, a: 1}
    - first:
        name: _EmissionColorUI
      second: {r: 1, g: 1, b: 1, a: 1}
    - first:
        name: _node_8310
      second: {r: 1, g: 0, b: 0, a: 1}
