%YAML 1.1
%TAG !u! tag:unity3d.com,2011:
--- !u!21 &2100000
Material:
  serializedVersion: 6
  m_ObjectHideFlags: 0
  m_PrefabParentObject: {fileID: 0}
  m_PrefabInternal: {fileID: 0}
  m_Name: Holo C - Specular (Sphere)
  m_Shader: {fileID: 4800000, guid: 3c4e5a4e4eda5154ab6644c159b1e034, type: 3}
  m_ShaderKeywords: 
  m_LightmapFlags: 5
  m_CustomRenderQueue: 2000
  stringTagMap: {}
  m_SavedProperties:
    serializedVersion: 2
    m_TexEnvs:
    - first:
        name: _Cubemap
      second:
        m_Texture: {fileID: 8900000, guid: 231521de99c71894d8af63955e84c014, type: 3}
        m_Scale: {x: 1, y: 1}
        m_Offset: {x: 0, y: 0}
    - first:
        name: _Decal
      second:
        m_Texture: {fileID: 2800000, guid: 7ef1fc6af3ea0ed40bbcc35969d8d393, type: 3}
        m_Scale: {x: 1, y: 1}
        m_Offset: {x: 0, y: 0}
    - first:
        name: _Holomap
      second:
        m_Texture: {fileID: 2800000, guid: 5eba56bc256b83e48be14062de39af57, type: 3}
        m_Scale: {x: 1, y: 1}
        m_Offset: {x: 0, y: 0}
    - first:
        name: _MainTex
      second:
        m_Texture: {fileID: 0}
        m_Scale: {x: 1, y: 1}
        m_Offset: {x: 0, y: 0}
    - first:
        name: _Mask
      second:
        m_Texture: {fileID: 2800000, guid: d837ca5c01796a94cab4556b0fa0e489, type: 3}
        m_Scale: {x: 1, y: 1}
        m_Offset: {x: 0, y: 0}
    - first:
        name: _Normalmap
      second:
        m_Texture: {fileID: 0}
        m_Scale: {x: 1, y: 1}
        m_Offset: {x: 0, y: 0}
    - first:
        name: _PrismMask
      second:
        m_Texture: {fileID: 2800000, guid: 0ea53bd690a98fc44a8669451a8758f6, type: 3}
        m_Scale: {x: 1, y: 1}
        m_Offset: {x: 0, y: 0}
    - first:
        name: _Prismraimbow
      second:
        m_Texture: {fileID: 2800000, guid: adde2ec18cf13054b971bdb8bcea50ac, type: 3}
        m_Scale: {x: 1, y: 1}
        m_Offset: {x: 0, y: 0}
    - first:
        name: _Raimbow
      second:
        m_Texture: {fileID: 2800000, guid: 2bdab35bf8b211c41acda8b61bdda7e7, type: 3}
        m_Scale: {x: 1, y: 1}
        m_Offset: {x: 0.5, y: 0}
    - first:
        name: _ShadowMask
      second:
        m_Texture: {fileID: 2800000, guid: 0511db5e48da287499ba593d568d5a9b, type: 3}
        m_Scale: {x: 1, y: 1}
        m_Offset: {x: 0, y: 0}
    - first:
        name: _Silvermask
      second:
        m_Texture: {fileID: 0}
        m_Scale: {x: 1, y: 1}
        m_Offset: {x: 0, y: 0}
    - first:
        name: _Specularmap
      second:
        m_Texture: {fileID: 2800000, guid: c5234d7966faf574883ea9a64f5a581a, type: 3}
        m_Scale: {x: 1, y: 1}
        m_Offset: {x: 0, y: 0}
    - first:
        name: _Specularmask
      second:
        m_Texture: {fileID: 0}
        m_Scale: {x: 1, y: 1}
        m_Offset: {x: 0, y: 0}
    - first:
        name: _node_9606
      second:
        m_Texture: {fileID: 2800000, guid: 7efee9b1d83702248bda554f4ea97a10, type: 3}
        m_Scale: {x: 1, y: 1}
        m_Offset: {x: 0, y: 0}
    - first:
        name: vwvxxv
      second:
        m_Texture: {fileID: 0}
        m_Scale: {x: 1, y: 1}
        m_Offset: {x: 0, y: 0}
    - first:
        name: vwwvvx
      second:
        m_Texture: {fileID: 8900000, guid: 231521de99c71894d8af63955e84c014, type: 3}
        m_Scale: {x: 1, y: 1}
        m_Offset: {x: 0, y: 0}
    - first:
        name: vwwxwx
      second:
        m_Texture: {fileID: 2800000, guid: a8113805eb6abb74b847f9fa74ccc56d, type: 3}
        m_Scale: {x: 1, y: 1}
        m_Offset: {x: 1, y: 0}
    - first:
        name: vxvvvw
      second:
        m_Texture: {fileID: 2800000, guid: 408cab5f33a18a04d8b84c9110482c40, type: 3}
        m_Scale: {x: 1, y: 1}
        m_Offset: {x: 0, y: 0}
    - first:
        name: wvwvww
      second:
        m_Texture: {fileID: 2800000, guid: 408cab5f33a18a04d8b84c9110482c40, type: 3}
        m_Scale: {x: 1, y: 1}
        m_Offset: {x: 0, y: 0}
    - first:
        name: xvwvwx
      second:
        m_Texture: {fileID: 2800000, guid: eea737174695d064ba30de693f6f173a, type: 3}
        m_Scale: {x: 3, y: 3}
        m_Offset: {x: 0, y: 0}
    m_Floats:
    - first:
        name: _BackgroundtranspBlack
      second: 0
    - first:
        name: _Clampmax
      second: 2
    - first:
        name: _Clampmin
      second: 0
    - first:
        name: _Cubemapblur05
      second: 2
    - first:
        name: _Cubemappower01
      second: 1
    - first:
        name: _Dep
      second: 1
    - first:
        name: _Depthdivide
      second: 20
    - first:
        name: _Desaturation01
      second: 0
    - first:
        name: _Fakelight
      second: 0
    - first:
        name: _ForegroundtranspWhite
      second: 0
    - first:
        name: _Glitterspeed
      second: 1
    - first:
        name: _Gloss01
      second: 0.09
    - first:
        name: _Holodepth
      second: 0.3
    - first:
        name: _Holonoise005
      second: 0
    - first:
        name: _Maskalpha
      second: 1
    - first:
        name: _NMap
      second: 0.05
    - first:
        name: _Noise005
      second: 0
    - first:
        name: _Prismcontrast15
      second: 1
    - first:
        name: _Prismmultiplier
      second: 1
    - first:
        name: _Prismpower15
      second: 1.4285715
    - first:
        name: _Prismspeed
      second: 0.21
    - first:
        name: _Raimbowspeed
      second: 1
    - first:
        name: _Raimbowzoom
      second: 1
    - first:
        name: _Rainbowcontrast15
      second: 1
    - first:
        name: _Rainbowpower02
      second: 0.5
    - first:
        name: _Rainbowpower15
      second: 0.91071427
    - first:
        name: _Rainbowrotation
      second: 0
    - first:
        name: _Rainbowscale
      second: 0.5
    - first:
        name: _Rainbowshift11
      second: 0
    - first:
        name: _Rainbowspeed
      second: 1
    - first:
        name: _Ref
      second: 0
    - first:
        name: _Rotator
      second: 4.83
    - first:
        name: _Shadowalpha
      second: 0
    - first:
        name: _Shadowspeed
      second: -3.66
    - first:
        name: _Silver
      second: 1
    - first:
        name: _Silver01
      second: 0
    - first:
        name: _Silver02
      second: 2
    - first:
        name: _Silverfar01
      second: 0
    - first:
        name: _Silvernear01
      second: 0.8035714
    - first:
        name: _Silverpower01
      second: 0.628
    - first:
        name: _Silverpower02
      second: 2
    - first:
        name: _Specular01
      second: 1
    - first:
        name: _Speed
      second: 0.46
    - first:
        name: _Zoom
      second: 0.51
    - first:
        name: _node_1451
      second: 0.1
    - first:
        name: _node_2326
      second: 0.63
    - first:
        name: _node_2907
      second: 0.96
    - first:
        name: _node_3043
      second: 1
    - first:
        name: _node_3391
      second: 0.25
    - first:
        name: _node_4370
      second: 3
    - first:
        name: _node_4482
      second: 0
    - first:
        name: _node_5171
      second: 2.51
    - first:
        name: _node_5452
      second: 0.05
    - first:
        name: _node_5681
      second: -25.03
    - first:
        name: _node_6537
      second: 0
    - first:
        name: _node_6998
      second: 0
    - first:
        name: _node_7552
      second: 2
    - first:
        name: _node_7703
      second: -0.21428572
    - first:
        name: _node_7873
      second: 1.4285715
    - first:
        name: _node_7942
      second: 1
    - first:
        name: _node_8851
      second: 1
    - first:
        name: _node_9046
      second: 0
    - first:
        name: _node_9046_copy
      second: 1
    - first:
        name: _node_904r678
      second: 1
    - first:
        name: _speed
      second: 0
    - first:
        name: vwwvxw
      second: 1
    - first:
        name: vwxvww
      second: 1.3
    - first:
        name: vxxxwx
      second: 1
    - first:
        name: wvvxxv
      second: 0
    - first:
        name: wvvxxw
      second: 0
    - first:
        name: wvwwxv
      second: 1.5
    - first:
        name: wwvxvx
      second: 0
    - first:
        name: wxvxxw
      second: 1
    - first:
        name: wxxxvv
      second: 1
    - first:
        name: xvxwww
      second: 0.5
    - first:
        name: xxwxww
      second: 0.09
    m_Colors:
    - first:
        name: _Color
      second: {r: 0, g: 0, b: 0, a: 1}
    - first:
        name: _Decalcolor
      second: {r: 0.7058823, g: 0.7058823, b: 0.7058823, a: 1}
    - first:
        name: _Maskcolor
      second: {r: 1, g: 1, b: 1, a: 1}
    - first:
        name: _Prismcolor
      second: {r: 0.7058823, g: 0.7058823, b: 0.7058823, a: 1}
    - first:
        name: _Rainbowcolor
      second: {r: 1, g: 1, b: 1, a: 1}
    - first:
        name: vvxxww
      second: {r: 0.7058823, g: 0.7058823, b: 0.7058823, a: 1}
