%YAML 1.1
%TAG !u! tag:unity3d.com,2011:
--- !u!21 &2100000
Material:
  serializedVersion: 6
  m_ObjectHideFlags: 0
  m_PrefabParentObject: {fileID: 0}
  m_PrefabInternal: {fileID: 0}
  m_Name: Glam Glitter D - Bumped Rough Textured (Alien Rock cube)
  m_Shader: {fileID: 4800000, guid: 8ed4172ae15079b4e979feea6684ea08, type: 3}
  m_ShaderKeywords: 
  m_LightmapFlags: 5
  m_CustomRenderQueue: 2000
  stringTagMap: {}
  m_SavedProperties:
    serializedVersion: 2
    m_TexEnvs:
    - first:
        name: _BaseRGB
      second:
        m_Texture: {fileID: 2800000, guid: 3c473c8b1b627574c8c50f0ed6da2044, type: 3}
        m_Scale: {x: 1, y: 1}
        m_Offset: {x: 0, y: 0}
    - first:
        name: _Glittermap
      second:
        m_Texture: {fileID: 2800000, guid: f084becfb31439842be0b4764a8911d8, type: 3}
        m_Scale: {x: 1, y: 1}
        m_Offset: {x: 0, y: 0}
    - first:
        name: _MainTex
      second:
        m_Texture: {fileID: 2800000, guid: 3c473c8b1b627574c8c50f0ed6da2044, type: 3}
        m_Scale: {x: 1, y: 1}
        m_Offset: {x: 0, y: 0}
    - first:
        name: _Mask
      second:
        m_Texture: {fileID: 2800000, guid: c1668ce4daf7b0c4f9260e59bc62deb7, type: 3}
        m_Scale: {x: 1, y: 1}
        m_Offset: {x: 0, y: 0}
    - first:
        name: _Normalmap
      second:
        m_Texture: {fileID: 2800000, guid: 5ccf817e44eb6594da8d25d4cf21584d, type: 3}
        m_Scale: {x: 1, y: 1}
        m_Offset: {x: 0, y: 0}
    - first:
        name: _Reflectioncubemap
      second:
        m_Texture: {fileID: 0}
        m_Scale: {x: 1, y: 1}
        m_Offset: {x: 0, y: 0}
    - first:
        name: _Specularglitter
      second:
        m_Texture: {fileID: 2800000, guid: 560c2dac3de07054380a26fbe275218c, type: 3}
        m_Scale: {x: 3, y: 3}
        m_Offset: {x: 0, y: 0}
    - first:
        name: vvxxww
      second:
        m_Texture: {fileID: 2800000, guid: f084becfb31439842be0b4764a8911d8, type: 3}
        m_Scale: {x: 1, y: 1}
        m_Offset: {x: 0, y: 0}
    - first:
        name: vwxwww
      second:
        m_Texture: {fileID: 2800000, guid: 560c2dac3de07054380a26fbe275218c, type: 3}
        m_Scale: {x: 2, y: 2}
        m_Offset: {x: 0, y: 0}
    - first:
        name: wvvxxv
      second:
        m_Texture: {fileID: 2800000, guid: c1668ce4daf7b0c4f9260e59bc62deb7, type: 3}
        m_Scale: {x: 1, y: 1}
        m_Offset: {x: 0, y: 0}
    - first:
        name: wxxwww
      second:
        m_Texture: {fileID: 2800000, guid: 5ccf817e44eb6594da8d25d4cf21584d, type: 3}
        m_Scale: {x: 1, y: 1}
        m_Offset: {x: 0, y: 0}
    m_Floats:
    - first:
        name: _Fakelight
      second: 0.0734
    - first:
        name: _Glittercontrast13
      second: 1.74
    - first:
        name: _Glitterpower
      second: 10
    - first:
        name: _Glitterymaskdotsscale
      second: 0.94
    - first:
        name: _Glitteryspeed01
      second: 0.3607143
    - first:
        name: _Maskadjust0515
      second: 1
    - first:
        name: _MasktransparencyDebug
      second: 1
    - first:
        name: _Reflectioncubemappower
      second: 0
    - first:
        name: _Shininess
      second: 0.269
    - first:
        name: _Specularcontrast13
      second: 2.2
    - first:
        name: _Specularpower05
      second: 1.91
    - first:
        name: vvxwwx
      second: 0.07
    - first:
        name: vwwxwx
      second: 6.5
    - first:
        name: vxvvvw
      second: 2
    - first:
        name: vxwwww
      second: 1.75
    - first:
        name: wvvxxw
      second: 1
    - first:
        name: wvwvww
      second: 0.35
    - first:
        name: wvwwxv
      second: 1
    - first:
        name: wxxxvv
      second: 2.2
    - first:
        name: xvwvwx
      second: 0.35
    m_Colors:
    - first:
        name: _Color
      second: {r: 0.45588237, g: 0.45588237, b: 0.45588237, a: 1}
    - first:
        name: _Glittercolor
      second: {r: 1, g: 1, b: 1, a: 1}
    - first:
        name: _Maincolor
      second: {r: 0.7058823, g: 0.7058823, b: 0.7058823, a: 1}
    - first:
        name: vwxvww
      second: {r: 1, g: 1, b: 1, a: 1}
