%YAML 1.1
%TAG !u! tag:unity3d.com,2011:
--- !u!21 &2100000
Material:
  serializedVersion: 6
  m_ObjectHideFlags: 0
  m_PrefabParentObject: {fileID: 0}
  m_PrefabInternal: {fileID: 0}
  m_Name: Glam Glitter C - Bumped Rough (Snow sphere) Drifts
  m_Shader: {fileID: 4800000, guid: d74301e2800a37a46a3303baf7fd2343, type: 3}
  m_ShaderKeywords: 
  m_LightmapFlags: 5
  m_CustomRenderQueue: 2000
  stringTagMap: {}
  m_SavedProperties:
    serializedVersion: 2
    m_TexEnvs:
    - first:
        name: _BaseRGB
      second:
        m_Texture: {fileID: 2800000, guid: 92193a86004de564caa1ba45bdd96195, type: 3}
        m_Scale: {x: 1, y: 1}
        m_Offset: {x: 0, y: 0}
    - first:
        name: _Glittermap
      second:
        m_Texture: {fileID: 2800000, guid: 7af31addba860914b865112b34fe3375, type: 3}
        m_Scale: {x: 1, y: 1}
        m_Offset: {x: 0, y: 0}
    - first:
        name: _MainTex
      second:
        m_Texture: {fileID: 0}
        m_Scale: {x: 1, y: 1}
        m_Offset: {x: 0, y: 0}
    - first:
        name: _Mask
      second:
        m_Texture: {fileID: 0}
        m_Scale: {x: 1, y: 1}
        m_Offset: {x: 0, y: 0}
    - first:
        name: _Normalmap
      second:
        m_Texture: {fileID: 2800000, guid: 17f60d2534722b94bba0b5d04cce5a59, type: 3}
        m_Scale: {x: 2, y: 2}
        m_Offset: {x: 0, y: 0}
    - first:
        name: _Reflectioncubemap
      second:
        m_Texture: {fileID: 0}
        m_Scale: {x: 1, y: 1}
        m_Offset: {x: 0, y: 0}
    - first:
        name: _Specularglitter
      second:
        m_Texture: {fileID: 2800000, guid: 560c2dac3de07054380a26fbe275218c, type: 3}
        m_Scale: {x: 3, y: 3}
        m_Offset: {x: 0, y: 0}
    - first:
        name: vvxxww
      second:
        m_Texture: {fileID: 2800000, guid: 7af31addba860914b865112b34fe3375, type: 3}
        m_Scale: {x: 1, y: 1}
        m_Offset: {x: 0, y: 0}
    - first:
        name: vwxwww
      second:
        m_Texture: {fileID: 2800000, guid: 560c2dac3de07054380a26fbe275218c, type: 3}
        m_Scale: {x: 1, y: 1}
        m_Offset: {x: 0, y: 0}
    - first:
        name: wvvxxv
      second:
        m_Texture: {fileID: 0}
        m_Scale: {x: 1, y: 1}
        m_Offset: {x: 0, y: 0}
    - first:
        name: wxxwww
      second:
        m_Texture: {fileID: 2800000, guid: 17f60d2534722b94bba0b5d04cce5a59, type: 3}
        m_Scale: {x: 1, y: 1}
        m_Offset: {x: 0, y: 0}
    m_Floats:
    - first:
        name: _Fakelight
      second: 0.1
    - first:
        name: _Glittercontrast13
      second: 1.18
    - first:
        name: _Glitterpower
      second: 4.4
    - first:
        name: _Glitterymaskdotsscale
      second: 2.6928575
    - first:
        name: _Glitteryspeed01
      second: 0.50357145
    - first:
        name: _Maskadjust0515
      second: 1
    - first:
        name: _MasktransparencyDebug
      second: 1
    - first:
        name: _Reflectioncubemappower
      second: 0
    - first:
        name: _Shininess
      second: 0.164166
    - first:
        name: _Specularcontrast13
      second: 1.8928571
    - first:
        name: _Specularpower05
      second: 1.02
    - first:
        name: vvxwwx
      second: 0
    - first:
        name: vwwxwx
      second: 3.67
    - first:
        name: vxvvvw
      second: 0.73
    - first:
        name: vxwwww
      second: 3
    - first:
        name: wvvxxw
      second: 0.57
    - first:
        name: wvwvww
      second: 0.236
    - first:
        name: wvwwxv
      second: 1.5
    - first:
        name: wxxxvv
      second: 3
    - first:
        name: xvwvwx
      second: 1
    m_Colors:
    - first:
        name: _Color
      second: {r: 0.85294116, g: 0.95740366, b: 1, a: 1}
    - first:
        name: _Glittercolor
      second: {r: 0.46323532, g: 0.8001013, b: 1, a: 1}
    - first:
        name: _Maincolor
      second: {r: 0.7921569, g: 0.7921569, b: 0.9098039, a: 1}
    - first:
        name: vwxvww
      second: {r: 0.46323532, g: 0.8001013, b: 1, a: 1}
