%YAML 1.1
%TAG !u! tag:unity3d.com,2011:
--- !u!21 &2100000
Material:
  serializedVersion: 6
  m_ObjectHideFlags: 0
  m_PrefabParentObject: {fileID: 0}
  m_PrefabInternal: {fileID: 0}
  m_Name: Glam Glitter F - Bumped Specular (Plastic cube)
  m_Shader: {fileID: 4800000, guid: 3292fac0edd439a438dc597a2147e454, type: 3}
  m_ShaderKeywords: 
  m_LightmapFlags: 0
  m_CustomRenderQueue: 2000
  stringTagMap: {}
  m_SavedProperties:
    serializedVersion: 2
    m_TexEnvs:
    - first:
        name: _MainTex
      second:
        m_Texture: {fileID: 2800000, guid: 7ef1fc6af3ea0ed40bbcc35969d8d393, type: 3}
        m_Scale: {x: 1, y: 1}
        m_Offset: {x: 0, y: 0}
    - first:
        name: _node_5140
      second:
        m_Texture: {fileID: 0}
        m_Scale: {x: 1, y: 1}
        m_Offset: {x: 0, y: 0}
    - first:
        name: vvxxww
      second:
        m_Texture: {fileID: 2800000, guid: 813502127469c9f499d819a641ca0ca8, type: 3}
        m_Scale: {x: 1, y: 1}
        m_Offset: {x: 0, y: 0}
    - first:
        name: vwwvvx
      second:
        m_Texture: {fileID: 8900000, guid: 231521de99c71894d8af63955e84c014, type: 3}
        m_Scale: {x: 1, y: 1}
        m_Offset: {x: 0, y: 0}
    - first:
        name: vwxwww
      second:
        m_Texture: {fileID: 2800000, guid: 4d3291be61ac4ba46ac780f54532aada, type: 3}
        m_Scale: {x: 3, y: 3}
        m_Offset: {x: 0, y: 0}
    - first:
        name: wvvxxv
      second:
        m_Texture: {fileID: 2800000, guid: 408cab5f33a18a04d8b84c9110482c40, type: 3}
        m_Scale: {x: 1, y: 1}
        m_Offset: {x: 0, y: 0}
    - first:
        name: wxxwww
      second:
        m_Texture: {fileID: 2800000, guid: 39698dc72d811ad4caaf2c8a1a2cb9f3, type: 3}
        m_Scale: {x: 1, y: 1}
        m_Offset: {x: 0, y: 0}
    m_Floats:
    - first:
        name: _Cubemapblur05
      second: 1
    - first:
        name: _node_9683
      second: 0
    - first:
        name: vvxwwx
      second: 0.06
    - first:
        name: vwwxwx
      second: 4
    - first:
        name: vxvvvw
      second: 1.5
    - first:
        name: vxwwww
      second: 1.5
    - first:
        name: wvvxxw
      second: 2
    - first:
        name: wvwvww
      second: 0.2
    - first:
        name: wvwwxv
      second: 1
    - first:
        name: wxxxvv
      second: 1.5
    - first:
        name: wxxxww
      second: 1
    - first:
        name: xvwvwx
      second: 0.8
    - first:
        name: xxwxww
      second: 1
    - first:
        name: xxwxwx
      second: 0
    m_Colors:
    - first:
        name: _Color
      second: {r: 0.7058823, g: 0.7058823, b: 0.7058823, a: 1}
    - first:
        name: vwxvww
      second: {r: 1, g: 1, b: 1, a: 1}
