%YAML 1.1
%TAG !u! tag:unity3d.com,2011:
--- !u!21 &2100000
Material:
  serializedVersion: 6
  m_ObjectHideFlags: 0
  m_PrefabParentObject: {fileID: 0}
  m_PrefabInternal: {fileID: 0}
  m_Name: Glam Glitter D - Bumped Rough Textured (GGS logo cube)
  m_Shader: {fileID: 4800000, guid: 8ed4172ae15079b4e979feea6684ea08, type: 3}
  m_ShaderKeywords: 
  m_LightmapFlags: 5
  m_CustomRenderQueue: 2000
  stringTagMap: {}
  m_SavedProperties:
    serializedVersion: 2
    m_TexEnvs:
    - first:
        name: _MainTex
      second:
        m_Texture: {fileID: 2800000, guid: dcd5bb72dd10f414cba3355543c2a1bd, type: 3}
        m_Scale: {x: 1, y: 1}
        m_Offset: {x: 0, y: 0}
    - first:
        name: vvxxww
      second:
        m_Texture: {fileID: 2800000, guid: 813502127469c9f499d819a641ca0ca8, type: 3}
        m_Scale: {x: 1, y: 1}
        m_Offset: {x: 0, y: 0}
    - first:
        name: vwwvvx
      second:
        m_Texture: {fileID: 8900000, guid: 231521de99c71894d8af63955e84c014, type: 3}
        m_Scale: {x: 1, y: 1}
        m_Offset: {x: 0, y: 0}
    - first:
        name: vwxwww
      second:
        m_Texture: {fileID: 2800000, guid: 3c473c8b1b627574c8c50f0ed6da2044, type: 3}
        m_Scale: {x: 1.5, y: 1.5}
        m_Offset: {x: 0, y: 0}
    - first:
        name: wvvxxv
      second:
        m_Texture: {fileID: 2800000, guid: 8f2f8441d9045af4291515f186d9179a, type: 3}
        m_Scale: {x: 1, y: 1}
        m_Offset: {x: 0, y: 0}
    - first:
        name: wxxwww
      second:
        m_Texture: {fileID: 2800000, guid: 11dcbe36f0063174cbb5b7939eca43e9, type: 3}
        m_Scale: {x: 1, y: 1}
        m_Offset: {x: 0, y: 0}
    m_Floats:
    - first:
        name: vvxwwx
      second: 0.05
    - first:
        name: vwwxwx
      second: 7
    - first:
        name: vxvvvw
      second: 1.5
    - first:
        name: vxwwww
      second: 1.4
    - first:
        name: wvvxxw
      second: 1.3
    - first:
        name: wvwvww
      second: 0.5
    - first:
        name: wvwwxv
      second: 1.15
    - first:
        name: wxxxvv
      second: 1.5
    - first:
        name: xvwvwx
      second: 0.6
    - first:
        name: xxwxww
      second: 0.5
    - first:
        name: xxwxwx
      second: 0
    m_Colors:
    - first:
        name: _Color
      second: {r: 0.7058823, g: 0.7058823, b: 0.7058823, a: 1}
    - first:
        name: vwxvww
      second: {r: 1, g: 1, b: 1, a: 1}
